%YAML 1.1
%TAG !u! tag:unity3d.com,2011:
--- !u!1001 &8217526711712832446
PrefabInstance:
  m_ObjectHideFlags: 0
  serializedVersion: 2
  m_Modification:
    serializedVersion: 3
    m_TransformParent: {fileID: 0}
    m_Modifications:
    - target: {fileID: 1209532671455275031, guid: d5ce551e4d0317e45a11541d49f15421, type: 3}
      propertyPath: _objectLifeController
      value: 
      objectReference: {fileID: 0}
    - target: {fileID: 3049412466429585287, guid: d5ce551e4d0317e45a11541d49f15421, type: 3}
      propertyPath: m_Name
      value: BoxNonDestructible Variant
      objectReference: {fileID: 0}
    - target: {fileID: 3049412466429585287, guid: d5ce551e4d0317e45a11541d49f15421, type: 3}
      propertyPath: m_Layer
      value: 6
      objectReference: {fileID: 0}
    - target: {fileID: 3049412466429585287, guid: d5ce551e4d0317e45a11541d49f15421, type: 3}
      propertyPath: m_TagString
      value: Untagged
      objectReference: {fileID: 0}
    - target: {fileID: 3273777020060047217, guid: d5ce551e4d0317e45a11541d49f15421, type: 3}
      propertyPath: m_LocalPosition.x
      value: -7.75
      objectReference: {fileID: 0}
    - target: {fileID: 3273777020060047217, guid: d5ce551e4d0317e45a11541d49f15421, type: 3}
      propertyPath: m_LocalPosition.y
      value: -1.4850119
      objectReference: {fileID: 0}
    - target: {fileID: 3273777020060047217, guid: d5ce551e4d0317e45a11541d49f15421, type: 3}
      propertyPath: m_LocalPosition.z
      value: 0
      objectReference: {fileID: 0}
    - target: {fileID: 3273777020060047217, guid: d5ce551e4d0317e45a11541d49f15421, type: 3}
      propertyPath: m_LocalRotation.w
      value: 1
      objectReference: {fileID: 0}
    - target: {fileID: 3273777020060047217, guid: d5ce551e4d0317e45a11541d49f15421, type: 3}
      propertyPath: m_LocalRotation.x
      value: 0
      objectReference: {fileID: 0}
    - target: {fileID: 3273777020060047217, guid: d5ce551e4d0317e45a11541d49f15421, type: 3}
      propertyPath: m_LocalRotation.y
      value: 0
      objectReference: {fileID: 0}
    - target: {fileID: 3273777020060047217, guid: d5ce551e4d0317e45a11541d49f15421, type: 3}
      propertyPath: m_LocalRotation.z
      value: 0.000010205651
      objectReference: {fileID: 0}
    - target: {fileID: 3273777020060047217, guid: d5ce551e4d0317e45a11541d49f15421, type: 3}
      propertyPath: m_LocalEulerAnglesHint.x
      value: 0
      objectReference: {fileID: 0}
    - target: {fileID: 3273777020060047217, guid: d5ce551e4d0317e45a11541d49f15421, type: 3}
      propertyPath: m_LocalEulerAnglesHint.y
      value: 0
      objectReference: {fileID: 0}
    - target: {fileID: 3273777020060047217, guid: d5ce551e4d0317e45a11541d49f15421, type: 3}
      propertyPath: m_LocalEulerAnglesHint.z
      value: 0
      objectReference: {fileID: 0}
    - target: {fileID: 7309822899794699460, guid: d5ce551e4d0317e45a11541d49f15421, type: 3}
      propertyPath: m_Sprite
      value: 
      objectReference: {fileID: -770178780, guid: 9537cbfe5aed5bb4cadfd2e71807cb68, type: 3}
    m_RemovedComponents:
    - {fileID: 1919762888406990230, guid: d5ce551e4d0317e45a11541d49f15421, type: 3}
    - {fileID: 1209532671455275031, guid: d5ce551e4d0317e45a11541d49f15421, type: 3}
    m_RemovedGameObjects: []
    m_AddedGameObjects: []
    m_AddedComponents: []
  m_SourcePrefab: {fileID: 100100000, guid: d5ce551e4d0317e45a11541d49f15421, type: 3}
